…
    ## Warning: package 'janeaustenr' was built under R version 4.2.3

``` r
library(tidytext)
```

    ## Warning: package 'tidytext' was built under R version 4.2.3

``` r
#Make a data frame storing each line of text as a row
df <- tibble(prideprejudice)
df
```

    ## # A tibble: 13,030 × 1
    ##    prideprejudice                                                           
    ##    <chr>                                                                    
    ##  1 "PRIDE AND PREJUDICE"                                                    
    ##  2 ""                                                                       
    ##  3 "By Jane Austen"                                                         
    ##  4 ""                                                                       
    ##  5 ""                                                                       
    ##  6 ""                                                                       
    ##  7 "Chapter 1"                                                              
    ##  8 ""                                                                       
    ##  9 ""                                                                       
    ## 10 "It is a truth universally acknowledged, that a single man in possession"
    ## # ℹ 13,020 more rows
…
``` r
#Obtain count of each word
clean_words <- clean_words %>%
  count(Words, sort = TRUE)

#There are too many words to graph - filter for words appearing >50 times in the text:

clean_words <- clean_words %>%
  filter(n > 100) %>%
  mutate(Words = reorder(Words, 1/n))

clean_words
```

    ## # A tibble: 23 × 2
    ##    Words         n
    ##    <fct>     <int>
    ##  1 elizabeth   597
    ##  2 darcy       373
    ##  3 bennet      294
    ##  4 miss        283
    ##  5 jane        264
    ##  6 bingley     257
    ##  7 time        203
    ##  8 lady        183
    ##  9 sister      180
    ## 10 wickham     162
    ## # ℹ 13 more rows
…
